time,pedal,steering [rad],speed [m/s],accel [m/s2],dist [m],lap,NGear,engine_trq [Nm],engine_speed [rpm],engine_temp [C],wheel_trq_left [Nm],wheel_trq_right [Nm],wheel_spd_left [rpm],wheel_spd_right [rpm],laptime [s]
0.1,0,0.01,0.0,-1.54,0.0,1,1,0.58,2048.92,20.02,0.0,0.0,0.0,0.0,0.0
0.2,0,0.01,0.0,-1.68,0.0,1,1,0.9,1983.47,20.04,0.0,0.0,0.0,0.0,0.0
0.30000000000000004,0,0.01,0.0,-1.54,0.0,1,1,0.36,1967.43,20.06,0.0,0.0,0.0,0.0,0.0
0.4,0,0.01,0.0,-0.64,0.0,1,1,0.39,2022.36,20.08,0.0,0.0,0.0,0.0,0.0
0.5,0,0.01,0.0,0.55,0.0,1,1,0.59,1951.44,20.1,0.0,0.0,0.0,0.0,0.0
0.6,0,0.01,0.0,1.79,0.0,1,1,0.18,2021.12,20.12,0.0,0.0,0.0,0.0,0.0
0.7,0,0.01,0.0,1.15,0.0,1,1,0.74,2005.23,20.14,0.0,0.0,0.0,0.0,0.0
0.7999999999999999,0,0.01,0.0,-1.07,0.0,1,1,0.75,1963.36,20.16,0.0,0.0,0.0,0.0,0.0
0.8999999999999999,0,0.01,0.0,1.31,0.0,1,1,-0.02,2010.08,20.18,0.0,0.0,0.0,0.0,0.0
0.9999999999999999,0,0.01,0.0,-1.82,0.0,1,1,-0.58,2037.3,20.2,0.0,0.0,0.0,0.0,0.0
1.0999999999999999,0,0.01,0.0,0.19,0.0,1,1,-0.0,1973.53,20.22,0.0,0.0,0.0,0.0,0.0
1.2,0,0.01,0.0,-1.87,0.0,1,1,0.18,2026.17,20.24,0.0,0.0,0.0,0.0,0.0
1.3,0,0.01,0.0,1.53,0.0,1,1,0.65,1950.88,20.26,0.0,0.0,0.0,0.0,0.0
1.4000000000000001,0,0.01,0.0,-1.94,0.0,1,1,-0.6,2023.35,20.28,0.0,0.0,0.0,0.0,0.0
1.5000000000000002,0,0.01,0.0,-0.79,0.0,1,1,-0.83,2030.47,20.3,0.0,0.0,0.0,0.0,0.0
1.6000000000000003,0,0.01,0.0,-0.46,0.0,1,1,-0.32,1994.64,20.32,0.0,0.0,0.0,0.0,0.0
1.7000000000000004,0,0.01,0.0,1.49,0.0,1,1,-0.89,1996.02,20.34,0.0,0.0,0.0,0.0,0.0
1.8000000000000005,0,0.01,0.0,0.03,0.0,1,1,0.61,2037.16,20.36,0.0,0.0,0.0,0.0,0.0
1.9000000000000006,0,0.01,0.0,-0.03,0.0,1,1,-0.19,2020.2,20.38,0.0,0.0,0.0,0.0,0.0
2.0000000000000004,0,0.01,0.0,-0.77,0.0,1,1,-0.5,1973.31,20.4,0.0,0.0,0.0,0.0,0.0
2.1000000000000005,0,0.01,0.0,-1.06,0.0,1,1,0.98,1982.64,20.42,0.0,0.0,0.0,0.0,0.0
2.2000000000000006,0,0.01,0.0,1.33,0.0,1,1,0.61,2012.68,20.44,0.0,0.0,0.0,0.0,0.0
2.3000000000000007,0,0.01,0.0,1.85,0.0,1,1,0.59,1952.8,20.45,0.0,0.0,0.0,0.0,0.0
2.400000000000001,0,0.01,0.0,-0.79,0.0,1,1,-0.55,2026.74,20.47,0.0,0.0,0.0,0.0,0.0
2.500000000000001,0,0.01,0.0,-0.45,0.0,1,1,0.13,1982.4,20.49,0.0,0.0,0.0,0.0,0.0
2.600000000000001,0,0.01,0.0,0.71,0.0,1,1,-0.92,1989.76,20.51,0.0,0.0,0.0,0.0,0.0
2.700000000000001,0,0.01,0.0,-0.77,0.0,1,1,-0.23,2017.34,20.53,0.0,0.0,0.0,0.0,0.0
2.800000000000001,0,0.01,0.0,0.08,0.0,1,1,0.54,2049.21,20.55,0.0,0.0,0.0,0.0,0.0
2.9000000000000012,0,0.01,0.0,1.22,0.0,1,1,-0.24,1986.42,20.57,0.0,0.0,0.0,0.0,0.0
3.0000000000000013,0,0.01,0.0,-0.36,0.0,1,1,-0.08,1953.99,20.59,0.0,0.0,0.0,0.0,0.0
3.1000000000000014,0,0.01,0.0,-1.03,0.0,1,1,0.67,2017.94,20.61,0.0,0.0,0.0,0.0,0.0
3.2000000000000015,0,0.01,0.0,-0.56,0.0,1,1,0.58,2026.83,20.63,0.0,0.0,0.0,0.0,0.0
3.3000000000000016,0,0.01,0.0,1.41,0.0,1,1,0.27,1975.47,20.65,0.0,0.0,0.0,0.0,0.0
3.4000000000000017,0,0.01,0.0,-1.86,0.0,1,1,-0.68,2033.21,20.67,0.0,0.0,0.0,0.0,0.0
3.5000000000000018,0,0.01,0.0,0.45,0.0,1,1,0.21,2003.2,20.69,0.0,0.0,0.0,0.0,0.0
3.600000000000002,0,0.01,0.0,-1.4,0.0,1,1,0.7,2049.83,20.71,0.0,0.0,0.0,0.0,0.0
3.700000000000002,0,0.01,0.0,0.82,0.0,1,1,0.72,1983.08,20.73,0.0,0.0,0.0,0.0,0.0
3.800000000000002,0,0.01,0.0,0.66,0.0,1,1,0.16,2015.93,20.75,0.0,0.0,0.0,0.0,0.0
3.900000000000002,0,0.01,0.0,0.65,0.0,1,1,0.13,2023.78,20.77,0.0,0.0,0.0,0.0,0.0
4.000000000000002,0,0.01,0.0,-0.87,0.0,1,1,-0.35,2028.01,20.78,0.0,0.0,0.0,0.0,0.0
4.100000000000001,0,0.01,0.0,0.1,0.0,1,1,-0.11,2023.01,20.8,0.0,0.0,0.0,0.0,0.0
4.200000000000001,0,0.01,0.0,-1.77,0.0,1,1,-0.35,2043.94,20.82,0.0,0.0,0.0,0.0,0.0
4.300000000000001,0,0.01,0.0,1.04,0.0,1,1,-0.81,2007.01,20.84,0.0,0.0,0.0,0.0,0.0
4.4,0,0.01,0.0,-0.51,0.0,1,1,-0.5,2043.39,20.86,0.0,0.0,0.0,0.0,0.0
4.5,0,0.01,0.0,0.79,0.0,1,1,-0.48,1984.73,20.88,0.0,0.0,0.0,0.0,0.0
4.6,0,0.01,0.0,-1.5,0.0,1,1,0.76,2047.64,20.9,0.0,0.0,0.0,0.0,0.0
4.699999999999999,0,0.01,0.0,-1.62,0.0,1,1,0.43,1984.78,20.92,0.0,0.0,0.0,0.0,0.0
4.799999999999999,0,0.01,0.0,-1.12,0.0,1,1,-0.07,2016.64,20.94,0.0,0.0,0.0,0.0,0.0
4.899999999999999,0,0.01,0.0,1.85,0.0,1,1,0.69,2033.88,20.96,0.0,0.0,0.0,0.0,0.0
4.999999999999998,0,0.01,0.0,0.87,0.0,1,1,-0.64,2021.17,20.98,0.0,0.0,0.0,0.0,0.0
5.099999999999998,0,0.01,0.0,1.34,0.0,1,1,-0.77,2020.07,20.99,0.0,0.0,0.0,0.0,0.0
5.1999999999999975,0,0.01,0.0,1.07,0.0,1,1,-0.51,1994.46,21.01,0.0,0.0,0.0,0.0,0.0
5.299999999999997,0,0.01,0.0,0.09,0.0,1,1,-0.45,2025.71,21.03,0.0,0.0,0.0,0.0,0.0
5.399999999999997,0,0.01,0.0,1.38,0.0,1,1,0.78,2011.45,21.05,0.0,0.0,0.0,0.0,0.0
5.4999999999999964,0,0.01,0.0,-1.89,0.0,1,1,0.36,1953.94,21.07,0.0,0.0,0.0,0.0,0.0
5.599999999999996,0,0.01,0.0,1.55,0.0,1,1,0.73,1984.58,21.09,0.0,0.0,0.0,0.0,0.0
5.699999999999996,0,0.01,0.0,1.17,0.0,1,1,0.97,2029.83,21.11,0.0,0.0,0.0,0.0,0.0
5.799999999999995,0,0.01,0.0,1.99,0.0,1,1,-0.58,1969.97,21.13,0.0,0.0,0.0,0.0,0.0
5.899999999999995,0,0.01,0.0,-0.29,0.0,1,1,-0.72,2007.0,21.15,0.0,0.0,0.0,0.0,0.0
5.999999999999995,0,0.01,0.0,0.29,0.0,1,1,0.65,2017.2,21.17,0.0,0.0,0.0,0.0,0.0
6.099999999999994,0,0.01,0.0,-1.78,0.0,1,1,-0.96,1958.72,21.18,0.0,0.0,0.0,0.0,0.0
6.199999999999994,0,0.01,0.0,0.24,0.0,1,1,0.84,2011.69,21.2,0.0,0.0,0.0,0.0,0.0
6.299999999999994,0,0.01,0.0,-1.39,0.0,1,1,-0.48,1979.32,21.22,0.0,0.0,0.0,0.0,0.0
6.399999999999993,0,0.01,0.0,-0.22,0.0,1,1,0.15,1993.16,21.24,0.0,0.0,0.0,0.0,0.0
6.499999999999993,0,0.01,0.0,0.27,0.0,1,1,0.59,1968.77,21.26,0.0,0.0,0.0,0.0,0.0
6.5999999999999925,0,0.01,0.0,-1.81,0.0,1,1,0.42,2003.35,21.28,0.0,0.0,0.0,0.0,0.0
6.699999999999992,0,0.01,0.0,-1.49,0.0,1,1,-0.7,1950.14,21.3,0.0,0.0,0.0,0.0,0.0
6.799999999999992,0,0.01,0.0,1.34,0.0,1,1,0.74,2035.8,21.32,0.0,0.0,0.0,0.0,0.0
6.8999999999999915,0,0.01,0.0,1.31,0.0,1,1,-0.16,1957.03,21.33,0.0,0.0,0.0,0.0,0.0
6.999999999999991,0,0.01,0.0,0.75,0.0,1,1,0.11,1996.45,21.35,0.0,0.0,0.0,0.0,0.0
7.099999999999991,0,0.01,0.0,1.81,0.0,1,1,-0.95,2022.94,21.37,0.0,0.0,0.0,0.0,0.0
7.19999999999999,0,0.01,0.0,-0.07,0.0,1,1,-0.35,1987.91,21.39,0.0,0.0,0.0,0.0,0.0
7.29999999999999,0,0.01,0.0,1.82,0.0,1,1,0.5,2017.53,21.41,0.0,0.0,0.0,0.0,0.0
7.39999999999999,0,0.01,0.0,-0.8,0.0,1,1,0.56,2035.76,21.43,0.0,0.0,0.0,0.0,0.0
7.499999999999989,0,0.01,0.0,-0.67,0.0,1,1,-0.91,2004.53,21.45,0.0,0.0,0.0,0.0,0.0
7.599999999999989,0,0.01,0.0,0.25,0.0,1,1,0.55,1957.33,21.46,0.0,0.0,0.0,0.0,0.0
7.699999999999989,0,0.01,0.0,1.84,0.0,1,1,-0.34,1957.59,21.48,0.0,0.0,0.0,0.0,0.0
7.799999999999988,0,0.01,0.0,-0.54,0.0,1,1,0.2,2009.79,21.5,0.0,0.0,0.0,0.0,0.0
7.899999999999988,0,0.01,0.0,-0.67,0.0,1,1,0.49,1963.98,21.52,0.0,0.0,0.0,0.0,0.0
7.999999999999988,0,0.01,0.0,-1.19,0.0,1,1,-0.55,1968.48,21.54,0.0,0.0,0.0,0.0,0.0
8.099999999999987,0,0.01,0.0,-1.88,0.0,1,1,-0.46,2012.82,21.56,0.0,0.0,0.0,0.0,0.0
8.199999999999987,0,0.01,0.0,-0.51,0.0,1,1,-0.16,2020.37,21.58,0.0,0.0,0.0,0.0,0.0
8.299999999999986,0,0.01,0.0,-0.2,0.0,1,1,0.86,1975.41,21.59,0.0,0.0,0.0,0.0,0.0
8.399999999999986,0,0.01,0.0,-0.15,0.0,1,1,0.0,1956.69,21.61,0.0,0.0,0.0,0.0,0.0
8.499999999999986,0,0.01,0.0,-1.71,0.0,1,1,-0.54,2043.42,21.63,0.0,0.0,0.0,0.0,0.0
8.599999999999985,0,0.01,0.0,1.97,0.0,1,1,-0.1,2038.41,21.65,0.0,0.0,0.0,0.0,0.0
8.699999999999985,0,0.01,0.0,0.7,0.0,1,1,-0.03,2030.42,21.67,0.0,0.0,0.0,0.0,0.0
8.799999999999985,0,0.01,0.0,1.74,0.0,1,1,-0.86,1969.14,21.69,0.0,0.0,0.0,0.0,0.0
8.899999999999984,0,0.01,0.0,1.47,0.0,1,1,0.48,2026.74,21.7,0.0,0.0,0.0,0.0,0.0
8.999999999999984,0,0.01,0.0,-0.94,0.0,1,1,0.48,2003.91,21.72,0.0,0.0,0.0,0.0,0.0
9.099999999999984,0,0.01,0.0,-1.46,0.0,1,1,-0.94,1954.09,21.74,0.0,0.0,0.0,0.0,0.0
9.199999999999983,0,0.01,0.0,-1.91,0.0,1,1,-0.77,2022.1,21.76,0.0,0.0,0.0,0.0,0.0
9.299999999999983,0,0.01,0.0,-0.71,0.0,1,1,0.25,2038.91,21.78,0.0,0.0,0.0,0.0,0.0
9.399999999999983,0,0.01,0.0,-0.63,0.0,1,1,0.17,2029.1,21.8,0.0,0.0,0.0,0.0,0.0
9.499999999999982,0,0.01,0.0,-1.35,0.0,1,1,0.99,2037.81,21.81,0.0,0.0,0.0,0.0,0.0
9.599999999999982,0,0.01,0.0,-1.43,0.0,1,1,-0.02,2002.45,21.83,0.0,0.0,0.0,0.0,0.0
9.699999999999982,0,0.01,0.0,1.54,0.0,1,1,-0.76,1953.92,21.85,0.0,0.0,0.0,0.0,0.0
9.799999999999981,0,0.01,0.0,-0.69,0.0,1,1,0.81,1966.23,21.87,0.0,0.0,0.0,0.0,0.0
9.89999999999998,0,0.01,0.0,1.02,0.0,1,1,-0.46,2009.1,21.89,0.0,0.0,0.0,0.0,0.0
